Assertions Testbench/V3.0/waveform.vcd
$date
    Feb 27, 2026  09:19:13
$end
$version
    TOOL:	xmsim	25.03-s001
$end
$timescale
    1 ns
$end

$scope module i2c_multi_slave_tb $end
$var reg       1 !    clk $end
$var reg       1 "    rst $end
$var reg       7 #    address [6:0] $end
$var reg       8 $    master_data_in [7:0] $end
$var reg       1 %    enable $end
$var reg       1 &    rw $end
$var reg       8 '    master_data_out [7:0] $end
$var reg       1 (    ready $end
$var reg       8 )    slave0_data_to_send [7:0] $end
$var reg       8 *    slave0_data_received [7:0] $end
$var reg       8 +    slave1_data_to_send [7:0] $end
$var reg       8 ,    slave1_data_received [7:0] $end
$var reg       8 -    slave2_data_to_send [7:0] $end
$var reg       8 .    slave2_data_received [7:0] $end
$var wire      1 /    sda  $end
$var wire      1 0    scl  $end

$scope module master $end
$var parameter 32 1    ADDR_WIDTH $end
$var parameter 32 2    DATA_WIDTH $end
$var parameter 32 3    CLOCK_DIV $end
$var wire      1 4    clk  $end
$var wire      1 5    rst  $end
$var wire      7 6    address [6:0] $end
$var wire      8 7    data_in [7:0] $end
$var wire      1 8    enable  $end
$var wire      1 9    rw  $end
$var reg       8 :    data_out [7:0] $end
$var reg       1 ;    ready $end
$var wire      1 /    i2c_sda  $end
$var wire      1 0    i2c_scl  $end
$var reg       4 <    state [3:0] $end
$var reg       8 =    address_reg [7:0] $end
$var reg       8 >    write_data_reg [7:0] $end
$var reg       4 ?    counter [3:0] $end
$var reg       3 @    clk_counter [2:0] $end
$var reg       1 A    sda_drive_en $end
$var reg       1 B    sda_out $end
$var reg       1 C    scl_enable $end
$var reg       1 D    i2c_clk $end

$scope module master_chk $end
$var wire      1 4    clk  $end
$var wire      1 5    rst  $end
$var wire      1 E    ready  $end
$var wire      1 8    enable  $end
$var wire      1 0    scl  $end
$var wire      1 /    sda  $end
$var wire      4 F    state [3:0] $end
$upscope $end

$upscope $end


$scope module slave0 $end
$var parameter 32 G    ADDR_WIDTH $end
$var parameter 32 H    DATA_WIDTH $end
$var parameter  7 I    SLAVE_ADDR [6:0] $end
$var wire      1 /    sda  $end
$var wire      1 0    scl  $end
$var wire      1 J    rst  $end
$var reg       8 K    data_received [7:0] $end
$var wire      8 L    data_to_send [7:0] $end
$var reg       3 M    state [2:0] $end
$var reg       8 N    address_reg [7:0] $end
$var reg       4 O    counter [3:0] $end
$var reg       1 P    sda_out $end
$var reg       1 Q    sda_drive_en $end
$var reg       1 R    start_event $end
$var reg       1 S    stop_event $end

$scope module slave_chk $end
$var wire      1 J    rst  $end
$var wire      1 0    scl  $end
$var wire      1 /    sda  $end
$var wire      1 T    sda_drive_en  $end
$upscope $end

$upscope $end


$scope module slave1 $end
$var parameter 32 U    ADDR_WIDTH $end
$var parameter 32 V    DATA_WIDTH $end
$var parameter  7 W    SLAVE_ADDR [6:0] $end
$var wire      1 /    sda  $end
$var wire      1 0    scl  $end
$var wire      1 X    rst  $end
$var reg       8 Y    data_received [7:0] $end
$var wire      8 Z    data_to_send [7:0] $end
$var reg       3 [    state [2:0] $end
$var reg       8 \    address_reg [7:0] $end
$var reg       4 ]    counter [3:0] $end
$var reg       1 ^    sda_out $end
$var reg       1 _    sda_drive_en $end
$var reg       1 `    start_event $end
$var reg       1 a    stop_event $end

$scope module slave_chk $end
$var wire      1 X    rst  $end
$var wire      1 0    scl  $end
$var wire      1 /    sda  $end
$var wire      1 b    sda_drive_en  $end
$upscope $end

$upscope $end


$scope module slave2 $end
$var parameter 32 c    ADDR_WIDTH $end
$var parameter 32 d    DATA_WIDTH $end
$var parameter  7 e    SLAVE_ADDR [6:0] $end
$var wire      1 /    sda  $end
$var wire      1 0    scl  $end
$var wire      1 f    rst  $end
$var reg       8 g    data_received [7:0] $end
$var wire      8 h    data_to_send [7:0] $end
$var reg       3 i    state [2:0] $end
$var reg       8 j    address_reg [7:0] $end
$var reg       4 k    counter [3:0] $end
$var reg       1 l    sda_out $end
$var reg       1 m    sda_drive_en $end
$var reg       1 n    start_event $end
$var reg       1 o    stop_event $end

$scope module slave_chk $end
$var wire      1 f    rst  $end
$var wire      1 0    scl  $end
$var wire      1 /    sda  $end
$var wire      1 p    sda_drive_en  $end
$upscope $end

$upscope $end


$scope module bus_chk $end
$var wire      1 q    rst  $end
$var wire      1 0    scl  $end
$var wire      1 /    sda  $end
$upscope $end

$upscope $end

$enddefinitions $end
$dumpvars
b11101 e
b1000 d
b111 c
b110011 W
b1000 V
b111 U
b101010 I
b1000 H
b111 G
b100 3
b1000 2
b111 1
0!
1"
b0 #
b0 $
0%
0&
bx '
0(
b0 )
b0 *
b0 +
b0 ,
b0 -
b0 .
1/
10
04
15
b0 6
b0 7
08
09
bx :
0;
b0 <
bx =
bx >
bx ?
b0 @
1A
1B
0C
1D
0E
b0 F
1J
b0 K
b0 L
b0 M
b0 N
b0 O
1P
0Q
0R
1S
0T
1X
b0 Y
b0 Z
b0 [
b0 \
b0 ]
1^
0_
0`
1a
0b
1f
b0 g
b0 h
b0 i
b0 j
b0 k
1l
0m
0n
1o
0p
1q
$end
#1
1!
14
#2
0!
04
#3
1!
14
#4
0!
04
#5
1!
14
#6
0!
04
#7
1!
14
#8
0!
04
#9
1!
14
#10
0!
04
#11
1!
14
#12
0!
04
#13
1!
14
#14
0!
04
#15
1!
14
#16
0!
04
#17
1!
14
#18
0!
04
#19
1!
14
#20
0"
b101010 #
b10100101 $
1%
0!
04
18
b10100101 7
b101010 6
0q
0f
0X
0J
05
1;
1E
1(
#21
1!
14
b1 @
#22
0!
04
#23
1!
14
b0 @
0D
#24
0!
04
#25
1!
14
b1 @
#26
0!
04
#27
1!
14
b0 @
1D
b1 <
b1010100 =
b10100101 >
b0 :
0;
0E
b1 F
0(
b0 '
#28
0!
04
#29
1!
14
b1 @
#30
0%
0!
04
08
#31
1!
14
b0 @
0D
0B
0/
1n
1`
1R
#32
0!
04
#33
1!
14
b1 @
#34
0!
04
#35
1!
14
b0 @
1D
b10 <
b10 F
#36
0!
04
#37
1!
14
b1 @
#38
0!
04
#39
1!
14
b0 @
0D
1C
00
#40
0!
04
#41
1!
14
b1 @
#42
0!
04
#43
1!
14
b0 @
1D
10
b111 ?
b11 <
b1 i
b111 k
b1 [
b111 ]
b1 M
b111 O
b11 F
#44
0!
04
#45
1!
14
b1 @
#46
0!
04
#47
1!
14
b0 @
0D
00
#48
0!
04
#49
1!
14
b1 @
#50
0!
04
#51
1!
14
b0 @
1D
10
b110 ?
b110 k
b110 ]
b110 O
#52
0!
04
#53
1!
14
b1 @
#54
0!
04
#55
1!
14
b0 @
0D
00
1B
1/
0o
0a
0S
#56
0!
04
#57
1!
14
b1 @
#58
0!
04
#59
1!
14
b0 @
1D
10
b101 ?
b1000000 j
b101 k
b1000000 \
b101 ]
b1000000 N
b101 O
#60
0!
04
#61
1!
14
b1 @
#62
0!
04
#63
1!
14
b0 @
0D
00
0B
0/
0n
0`
0R
#64
0!
04
#65
1!
14
b1 @
#66
0!
04
#67
1!
14
b0 @
1D
10
b100 ?
b100 k
b100 ]
b100 O
#68
0!
04
#69
1!
14
b1 @
#70
0!
04
#71
1!
14
b0 @
0D
00
1B
1/
#72
0!
04
#73
1!
14
b1 @
#74
0!
04
#75
1!
14
b0 @
1D
10
b11 ?
b1010000 j
b11 k
b1010000 \
b11 ]
b1010000 N
b11 O
#76
0!
04
#77
1!
14
b1 @
#78
0!
04
#79
1!
14
b0 @
0D
00
0B
0/
#80
0!
04
#81
1!
14
b1 @
#82
0!
04
#83
1!
14
b0 @
1D
10
b10 ?
b10 k
b10 ]
b10 O
#84
0!
04
#85
1!
14
b1 @
#86
0!
04
#87
1!
14
b0 @
0D
00
1B
1/
#88
0!
04
#89
1!
14
b1 @
#90
0!
04
#91
1!
14
b0 @
1D
10
b1 ?
b1010100 j
b1 k
b1010100 \
b1 ]
b1010100 N
b1 O
#92
0!
04
#93
1!
14
b1 @
#94
0!
04
#95
1!
14
b0 @
0D
00
0B
0/
#96
0!
04
#97
1!
14
b1 @
#98
0!
04
#99
1!
14
b0 @
1D
10
b0 ?
b0 k
b0 ]
b0 O
#100
0!
04
#101
1!
14
b1 @
#102
0!
04
#103
1!
14
b0 @
0D
00
#104
0!
04
#105
1!
14
b1 @
#106
0!
04
#107
1!
14
b0 @
1D
10
b100 <
b10 i
b10 [
b10 M
b100 F
#108
0!
04
#109
1!
14
b1 @
#110
0!
04
#111
1!
14
b0 @
0D
00
0A
0P
1Q
1T
#112
0!
04
#113
1!
14
b1 @
#114
0!
04
#115
1!
14
b0 @
1D
10
b111 ?
b101 <
b0 i
b0 [
b111 O
b11 M
b101 F
#116
0!
04
#117
1!
14
b1 @
#118
0!
04
#119
1!
14
b0 @
0D
00
1A
1B
0Q
0T
1/
#120
0!
04
#121
1!
14
b1 @
#122
0!
04
#123
1!
14
b0 @
1D
10
b110 ?
b10000000 K
b110 O
b10000000 *
#124
0!
04
#125
1!
14
b1 @
#126
0!
04
#127
1!
14
b0 @
0D
00
0B
0/
#128
0!
04
#129
1!
14
b1 @
#130
0!
04
#131
1!
14
b0 @
1D
10
b101 ?
b101 O
#132
0!
04
#133
1!
14
b1 @
#134
0!
04
#135
1!
14
b0 @
0D
00
1B
1/
#136
0!
04
#137
1!
14
b1 @
#138
0!
04
#139
1!
14
b0 @
1D
10
b100 ?
b10100000 K
b100 O
b10100000 *
#140
0!
04
#141
1!
14
b1 @
#142
0!
04
#143
1!
14
b0 @
0D
00
0B
0/
#144
0!
04
#145
1!
14
b1 @
#146
0!
04
#147
1!
14
b0 @
1D
10
b11 ?
b11 O
#148
0!
04
#149
1!
14
b1 @
#150
0!
04
#151
1!
14
b0 @
0D
00
#152
0!
04
#153
1!
14
b1 @
#154
0!
04
#155
1!
14
b0 @
1D
10
b10 ?
b10 O
#156
0!
04
#157
1!
14
b1 @
#158
0!
04
#159
1!
14
b0 @
0D
00
1B
1/
#160
0!
04
#161
1!
14
b1 @
#162
0!
04
#163
1!
14
b0 @
1D
10
b1 ?
b10100100 K
b1 O
b10100100 *
#164
0!
04
#165
1!
14
b1 @
#166
0!
04
#167
1!
14
b0 @
0D
00
0B
0/
#168
0!
04
#169
1!
14
b1 @
#170
0!
04
#171
1!
14
b0 @
1D
10
b0 ?
b0 O
#172
0!
04
#173
1!
14
b1 @
#174
0!
04
#175
1!
14
b0 @
0D
00
1B
1/
#176
0!
04
#177
1!
14
b1 @
#178
0!
04
#179
1!
14
b0 @
1D
10
b110 <
b10100101 K
b100 M
b110 F
b10100101 *
#180
0!
04
#181
1!
14
b1 @
#182
0!
04
#183
1!
14
b0 @
0D
00
0A
1Q
1T
0/
#184
0!
04
#185
1!
14
b1 @
#186
0!
04
#187
1!
14
b0 @
1D
10
b1001 <
b0 M
b1001 F
#188
0!
04
#189
1!
14
b1 @
#190
0!
04
#191
1!
14
b0 @
0D
00
0C
1A
0Q
0T
10
1/
1o
1a
1S
#192
0!
04
#193
1!
14
b1 @
#194
0!
04
#195
1!
14
b0 @
1D
b0 <
1;
1E
b0 F
1(
#196
0!
04
#197
1!
14
b1 @
#198
0!
04
#199
1!
14
b0 @
0D
#200
0!
04
#201
1!
14
b1 @
#202
0!
04
#203
1!
14
b0 @
1D
#204
0!
04
#205
1!
14
b1 @
#206
0!
04
#207
1!
14
b0 @
0D
#208
0!
04
#209
1!
14
b1 @
#210
0!
04
#211
1!
14
b0 @
1D
#212
0!
04
#213
1!
14
b1 @
#214
0!
04
#215
1!
14
b0 @
0D
#216
0!
04
#217
1!
14
b1 @
#218
0!
04
#219
1!
14
b0 @
1D
#220
0!
04
#221
1!
14
b1 @
#222
0!
04
#223
1!
14
b0 @
0D
#224
0!
04
#225
1!
14
b1 @
#226
0!
04
#227
1!
14
b0 @
1D
#228
0!
04
#229
1!
14
b1 @
#230
0!
04
#231
1!
14
b0 @
0D
#232
0!
04
#233
1!
14
b1 @
#234
0!
04
#235
1!
14
b0 @
1D
#236
0!
04
#237
1!
14
b1 @
#238
0!
04
#239
1!
14
b0 @
0D
#240
0!
04
#241
1!
14
b1 @
#242
0!
04
#243
1!
14
b0 @
1D
#244
0!
04
#245
1!
14
b1 @
#246
0!
04
#247
1!
14
b0 @
0D
#248
0!
04
#249
1!
14
b1 @
#250
0!
04
#251
1!
14
b0 @
1D
#252
0!
04
#253
1!
14
b1 @
#254
0!
04
#255
1!
14
b0 @
0D
#256
0!
04
#257
1!
14
b1 @
#258
0!
04
#259
1!
14
b0 @
1D
#260
0!
04
#261
1!
14
b1 @
#262
0!
04
#263
1!
14
b0 @
0D
#264
0!
04
#265
1!
14
b1 @
#266
0!
04
#267
1!
14
b0 @
1D
#268
0!
04
#269
1!
14
b1 @
#270
0!
04
#271
1!
14
b0 @
0D
#272
0!
04
#273
1!
14
b1 @
#274
0!
04
#275
1!
14
b0 @
1D
#276
0!
04
#277
1!
14
b1 @
#278
0!
04
#279
1!
14
b0 @
0D
#280
0!
04
#281
1!
14
b1 @
#282
0!
04
#283
1!
14
b0 @
1D
#284
0!
04
#285
1!
14
b1 @
#286
0!
04
#287
1!
14
b0 @
0D
#288
0!
04
#289
1!
14
b1 @
#290
0!
04
#291
1!
14
b0 @
1D
#292
0!
04
#293
1!
14
b1 @
#294
0!
04
#295
1!
14
b0 @
0D
#296
0!
04
#297
1!
14
b1 @
#298
0!
04
#299
1!
14
b0 @
1D
#300
0!
04
#301
1!
14
b1 @
#302
0!
04
#303
1!
14
b0 @
0D
#304
0!
04
#305
1!
14
b1 @
#306
0!
04
#307
1!
14
b0 @
1D
#308
0!
04
#309
1!
14
b1 @
#310
0!
04
#311
1!
14
b0 @
0D
#312
0!
04
#313
1!
14
b1 @
#314
0!
04
#315
1!
14
b0 @
1D
#316
0!
04
#317
1!
14
b1 @
#318
0!
04
#319
1!
14
b0 @
0D
#320
0!
04
#321
1!
14
b1 @
#322
0!
04
#323
1!
14
b0 @
1D
#324
0!
04
#325
1!
14
b1 @
#326
0!
04
#327
1!
14
b0 @
0D
#328
0!
04
#329
1!
14
b1 @
#330
0!
04
#331
1!
14
b0 @
1D
#332
0!
04
#333
1!
14
b1 @
#334
0!
04
#335
1!
14
b0 @
0D
#336
0!
04
#337
1!
14
b1 @
#338
0!
04
#339
1!
14
b0 @
1D
#340
0!
04
#341
1!
14
b1 @
#342
0!
04
#343
1!
14
b0 @
0D
#344
0!
04
#345
1!
14
b1 @
#346
0!
04
#347
1!
14
b0 @
1D
#348
0!
04
#349
1!
14
b1 @
#350
0!
04
#351
1!
14
b0 @
0D
#352
0!
04
#353
1!
14
b1 @
#354
0!
04
#355
1!
14
b0 @
1D
#356
0!
04
#357
1!
14
b1 @
#358
0!
04
#359
1!
14
b0 @
0D
#360
0!
04
#361
1!
14
b1 @
#362
0!
04
#363
1!
14
b0 @
1D
#364
0!
04
#365
1!
14
b1 @
#366
0!
04
#367
1!
14
b0 @
0D
#368
0!
04
#369
1!
14
b1 @
#370
0!
04
#371
1!
14
b0 @
1D
#372
0!
04
#373
1!
14
b1 @
#374
0!
04
#375
1!
14
b0 @
0D
#376
0!
04
#377
1!
14
b1 @
#378
0!
04
#379
1!
14
b0 @
1D
#380
0!
04
#381
1!
14
b1 @
#382
0!
04
#383
1!
14
b0 @
0D
#384
0!
04
#385
1!
14
b1 @
#386
0!
04
#387
1!
14
b0 @
1D
#388
0!
04
#389
1!
14
b1 @
#390
0!
04
#391
1!
14
b0 @
0D
#392
0!
04
#393
1!
14
b1 @
#394
0!
04
#395
1!
14
b0 @
1D
#396
0!
04
#397
1!
14
b1 @
#398
0!
04
#399
1!
14
b0 @
0D
#400
0!
04
#401
1!
14
b1 @
#402
0!
04
#403
1!
14
b0 @
1D
#404
0!
04
#405
1!
14
b1 @
#406
0!
04
#407
1!
14
b0 @
0D
#408
0!
04
#409
1!
14
b1 @
#410
0!
04
#411
1!
14
b0 @
1D
#412
0!
04
#413
1!
14
b1 @
#414
0!
04
#415
1!
14
b0 @
0D
#416
0!
04
#417
1!
14
b1 @
#418
0!
04
#419
1!
14
b0 @
1D
#420
0!
04
#421
1!
14
b1 @
#422
0!
04
#423
1!
14
b0 @
0D
#424
0!
04
#425
1!
14
b1 @
#426
0!
04
#427
1!
14
b0 @
1D
#428
0!
04
#429
1!
14
b1 @
#430
b110011 #
b111100 $
1%
0!
04
18
b111100 7
b110011 6
#431
1!
14
b0 @
0D
#432
0!
04
#433
1!
14
b1 @
#434
0!
04
#435
1!
14
b0 @
1D
b1 <
b1100110 =
b111100 >
0;
0E
b1 F
0(
#436
0!
04
#437
1!
14
b1 @
#438
0!
04
#439
1!
14
b0 @
0D
0B
0/
1n
1`
1R
#440
0%
0!
04
08
#441
1!
14
b1 @
#442
0!
04
#443
1!
14
b0 @
1D
b10 <
b10 F
#444
0!
04
#445
1!
14
b1 @
#446
0!
04
#447
1!
14
b0 @
0D
1C
00
#448
0!
04
#449
1!
14
b1 @
#450
0!
04
#451
1!
14
b0 @
1D
10
b111 ?
b11 <
b1 i
b111 k
b0 j
b1 [
b111 ]
b0 \
b1 M
b111 O
b0 N
b11 F
#452
0!
04
#453
1!
14
b1 @
#454
0!
04
#455
1!
14
b0 @
0D
00
#456
0!
04
#457
1!
14
b1 @
#458
0!
04
#459
1!
14
b0 @
1D
10
b110 ?
b110 k
b110 ]
b110 O
#460
0!
04
#461
1!
14
b1 @
#462
0!
04
#463
1!
14
b0 @
0D
00
1B
1/
0o
0a
0S
#464
0!
04
#465
1!
14
b1 @
#466
0!
04
#467
1!
14
b0 @
1D
10
b101 ?
b1000000 j
b101 k
b1000000 \
b101 ]
b1000000 N
b101 O
#468
0!
04
#469
1!
14
b1 @
#470
0!
04
#471
1!
14
b0 @
0D
00
#472
0!
04
#473
1!
14
b1 @
#474
0!
04
#475
1!
14
b0 @
1D
10
b100 ?
b1100000 j
b100 k
b1100000 \
b100 ]
b1100000 N
b100 O
#476
0!
04
#477
1!
14
b1 @
#478
0!
04
#479
1!
14
b0 @
0D
00
0B
0/
0n
0`
0R
#480
0!
04
#481
1!
14
b1 @
#482
0!
04
#483
1!
14
b0 @
1D
10
b11 ?
b11 k
b11 ]
b11 O
#484
0!
04
#485
1!
14
b1 @
#486
0!
04
#487
1!
14
b0 @
0D
00
#488
0!
04
#489
1!
14
b1 @
#490
0!
04
#491
1!
14
b0 @
1D
10
b10 ?
b10 k
b10 ]
b10 O
#492
0!
04
#493
1!
14
b1 @
#494
0!
04
#495
1!
14
b0 @
0D
00
1B
1/
#496
0!
04
#497
1!
14
b1 @
#498
0!
04
#499
1!
14
b0 @
1D
10
b1 ?
b1100100 j
b1 k
b1100100 \
b1 ]
b1100100 N
b1 O
#500
0!
04
#501
1!
14
b1 @
#502
0!
04
#503
1!
14
b0 @
0D
00
#504
0!
04
#505
1!
14
b1 @
#506
0!
04
#507
1!
14
b0 @
1D
10
b0 ?
b1100110 j
b0 k
b1100110 \
b0 ]
b1100110 N
b0 O
#508
0!
04
#509
1!
14
b1 @
#510
0!
04
#511
1!
14
b0 @
0D
00
0B
0/
#512
0!
04
#513
1!
14
b1 @
#514
0!
04
#515
1!
14
b0 @
1D
10
b100 <
b10 i
b10 [
b10 M
b100 F
#516
0!
04
#517
1!
14
b1 @
#518
0!
04
#519
1!
14
b0 @
0D
00
0A
0^
1_
1b
#520
0!
04
#521
1!
14
b1 @
#522
0!
04
#523
1!
14
b0 @
1D
10
b111 ?
b101 <
b0 i
b111 ]
b11 [
b0 M
b101 F
#524
0!
04
#525
1!
14
b1 @
#526
0!
04
#527
1!
14
b0 @
0D
00
1A
0_
0b
#528
0!
04
#529
1!
14
b1 @
#530
0!
04
#531
1!
14
b0 @
1D
10
b110 ?
b110 ]
#532
0!
04
#533
1!
14
b1 @
#534
0!
04
#535
1!
14
b0 @
0D
00
#536
0!
04
#537
1!
14
b1 @
#538
0!
04
#539
1!
14
b0 @
1D
10
b101 ?
b101 ]
#540
0!
04
#541
1!
14
b1 @
#542
0!
04
#543
1!
14
b0 @
0D
00
1B
1/
#544
0!
04
#545
1!
14
b1 @
#546
0!
04
#547
1!
14
b0 @
1D
10
b100 ?
b100000 Y
b100 ]
b100000 ,
#548
0!
04
#549
1!
14
b1 @
#550
0!
04
#551
1!
14
b0 @
0D
00
#552
0!
04
#553
1!
14
b1 @
#554
0!
04
#555
1!
14
b0 @
1D
10
b11 ?
b110000 Y
b11 ]
b110000 ,
#556
0!
04
#557
1!
14
b1 @
#558
0!
04
#559
1!
14
b0 @
0D
00
#560
0!
04
#561
1!
14
b1 @
#562
0!
04
#563
1!
14
b0 @
1D
10
b10 ?
b111000 Y
b10 ]
b111000 ,
#564
0!
04
#565
1!
14
b1 @
#566
0!
04
#567
1!
14
b0 @
0D
00
#568
0!
04
#569
1!
14
b1 @
#570
0!
04
#571
1!
14
b0 @
1D
10
b1 ?
b111100 Y
b1 ]
b111100 ,
#572
0!
04
#573
1!
14
b1 @
#574
0!
04
#575
1!
14
b0 @
0D
00
0B
0/
#576
0!
04
#577
1!
14
b1 @
#578
0!
04
#579
1!
14
b0 @
1D
10
b0 ?
b0 ]
#580
0!
04
#581
1!
14
b1 @
#582
0!
04
#583
1!
14
b0 @
0D
00
#584
0!
04
#585
1!
14
b1 @
#586
0!
04
#587
1!
14
b0 @
1D
10
b110 <
b100 [
b110 F
#588
0!
04
#589
1!
14
b1 @
#590
0!
04
#591
1!
14
b0 @
0D
00
0A
1_
1b
#592
0!
04
#593
1!
14
b1 @
#594
0!
04
#595
1!
14
b0 @
1D
10
b1001 <
b0 [
b1001 F
#596
0!
04
#597
1!
14
b1 @
#598
0!
04
#599
1!
14
b0 @
0D
00
0C
1A
1B
0_
0b
10
1/
1o
1a
1S
#600
0!
04
#601
1!
14
b1 @
#602
0!
04
#603
1!
14
b0 @
1D
b0 <
1;
1E
b0 F
1(
#604
0!
04
#605
1!
14
b1 @
#606
0!
04
#607
1!
14
b0 @
0D
#608
0!
04
#609
1!
14
b1 @
#610
0!
04
#611
1!
14
b0 @
1D
#612
0!
04
#613
1!
14
b1 @
#614
0!
04
#615
1!
14
b0 @
0D
#616
0!
04
#617
1!
14
b1 @
#618
0!
04
#619
1!
14
b0 @
1D
#620
0!
04
#621
1!
14
b1 @
#622
0!
04
#623
1!
14
b0 @
0D
#624
0!
04
#625
1!
14
b1 @
#626
0!
04
#627
1!
14
b0 @
1D
#628
0!
04
#629
1!
14
b1 @
#630
0!
04
#631
1!
14
b0 @
0D
#632
0!
04
#633
1!
14
b1 @
#634
0!
04
#635
1!
14
b0 @
1D
#636
0!
04
#637
1!
14
b1 @
#638
0!
04
#639
1!
14
b0 @
0D
#640
0!
04
#641
1!
14
b1 @
#642
0!
04
#643
1!
14
b0 @
1D
#644
0!
04
#645
1!
14
b1 @
#646
0!
04
#647
1!
14
b0 @
0D
#648
0!
04
#649
1!
14
b1 @
#650
0!
04
#651
1!
14
b0 @
1D
#652
0!
04
#653
1!
14
b1 @
#654
0!
04
#655
1!
14
b0 @
0D
#656
0!
04
#657
1!
14
b1 @
#658
0!
04
#659
1!
14
b0 @
1D
#660
0!
04
#661
1!
14
b1 @
#662
0!
04
#663
1!
14
b0 @
0D
#664
0!
04
#665
1!
14
b1 @
#666
0!
04
#667
1!
14
b0 @
1D
#668
0!
04
#669
1!
14
b1 @
#670
0!
04
#671
1!
14
b0 @
0D
#672
0!
04
#673
1!
14
b1 @
#674
0!
04
#675
1!
14
b0 @
1D
#676
0!
04
#677
1!
14
b1 @
#678
0!
04
#679
1!
14
b0 @
0D
#680
0!
04
#681
1!
14
b1 @
#682
0!
04
#683
1!
14
b0 @
1D
#684
0!
04
#685
1!
14
b1 @
#686
0!
04
#687
1!
14
b0 @
0D
#688
0!
04
#689
1!
14
b1 @
#690
0!
04
#691
1!
14
b0 @
1D
#692
0!
04
#693
1!
14
b1 @
#694
0!
04
#695
1!
14
b0 @
0D
#696
0!
04
#697
1!
14
b1 @
#698
0!
04
#699
1!
14
b0 @
1D
#700
0!
04
#701
1!
14
b1 @
#702
0!
04
#703
1!
14
b0 @
0D
#704
0!
04
#705
1!
14
b1 @
#706
0!
04
#707
1!
14
b0 @
1D
#708
0!
04
#709
1!
14
b1 @
#710
0!
04
#711
1!
14
b0 @
0D
#712
0!
04
#713
1!
14
b1 @
#714
0!
04
#715
1!
14
b0 @
1D
#716
0!
04
#717
1!
14
b1 @
#718
0!
04
#719
1!
14
b0 @
0D
#720
0!
04
#721
1!
14
b1 @
#722
0!
04
#723
1!
14
b0 @
1D
#724
0!
04
#725
1!
14
b1 @
#726
0!
04
#727
1!
14
b0 @
0D
#728
0!
04
#729
1!
14
b1 @
#730
0!
04
#731
1!
14
b0 @
1D
#732
0!
04
#733
1!
14
b1 @
#734
0!
04
#735
1!
14
b0 @
0D
#736
0!
04
#737
1!
14
b1 @
#738
0!
04
#739
1!
14
b0 @
1D
#740
0!
04
#741
1!
14
b1 @
#742
0!
04
#743
1!
14
b0 @
0D
#744
0!
04
#745
1!
14
b1 @
#746
0!
04
#747
1!
14
b0 @
1D
#748
0!
04
#749
1!
14
b1 @
#750
0!
04
#751
1!
14
b0 @
0D
#752
0!
04
#753
1!
14
b1 @
#754
0!
04
#755
1!
14
b0 @
1D
#756
0!
04
#757
1!
14
b1 @
#758
0!
04
#759
1!
14
b0 @
0D
#760
0!
04
#761
1!
14
b1 @
#762
0!
04
#763
1!
14
b0 @
1D
#764
0!
04
#765
1!
14
b1 @
#766
0!
04
#767
1!
14
b0 @
0D
#768
0!
04
#769
1!
14
b1 @
#770
0!
04
#771
1!
14
b0 @
1D
#772
0!
04
#773
1!
14
b1 @
#774
0!
04
#775
1!
14
b0 @
0D
#776
0!
04
#777
1!
14
b1 @
#778
0!
04
#779
1!
14
b0 @
1D
#780
0!
04
#781
1!
14
b1 @
#782
0!
04
#783
1!
14
b0 @
0D
#784
0!
04
#785
1!
14
b1 @
#786
0!
04
#787
1!
14
b0 @
1D
#788
0!
04
#789
1!
14
b1 @
#790
0!
04
#791
1!
14
b0 @
0D
#792
0!
04
#793
1!
14
b1 @
#794
0!
04
#795
1!
14
b0 @
1D
#796
0!
04
#797
1!
14
b1 @
#798
0!
04
#799
1!
14
b0 @
0D
#800
0!
04
#801
1!
14
b1 @
#802
0!
04
#803
1!
14
b0 @
1D
#804
0!
04
#805
1!
14
b1 @
#806
0!
04
#807
1!
14
b0 @
0D
#808
0!
04
#809
1!
14
b1 @
#810
0!
04
#811
1!
14
b0 @
1D
#812
0!
04
#813
1!
14
b1 @
#814
0!
04
#815
1!
14
b0 @
0D
#816
0!
04
#817
1!
14
b1 @
#818
0!
04
#819
1!
14
b0 @
1D
#820
0!
04
#821
1!
14
b1 @
#822
0!
04
#823
1!
14
b0 @
0D
#824
0!
04
#825
1!
14
b1 @
#826
0!
04
#827
1!
14
b0 @
1D
#828
0!
04
#829
1!
14
b1 @
#830
0!
04
#831
1!
14
b0 @
0D
#832
0!
04
#833
1!
14
b1 @
#834
0!
04
#835
1!
14
b0 @
1D
#836
0!
04
#837
1!
14
b1 @
#838
0!
04
#839
1!
14
b0 @
0D
#840
b11101 #
b1110111 $
1%
0!
04
18
b1110111 7
b11101 6
#841
1!
14
b1 @
#842
0!
04
#843
1!
14
b0 @
1D
b1 <
b111010 =
b1110111 >
0;
0E
b1 F
0(
#844
0!
04
#845
1!
14
b1 @
#846
0!
04
#847
1!
14
b0 @
0D
0B
0/
1n
1`
1R
#848
0!
04
#849
1!
14
b1 @
#850
0%
0!
04
08
#851
1!
14
b0 @
1D
b10 <
b10 F
#852
0!
04
#853
1!
14
b1 @
#854
0!
04
#855
1!
14
b0 @
0D
1C
00
#856
0!
04
#857
1!
14
b1 @
#858
0!
04
#859
1!
14
b0 @
1D
10
b111 ?
b11 <
b1 i
b111 k
b0 j
b1 [
b111 ]
b0 \
b1 M
b111 O
b0 N
b11 F
#860
0!
04
#861
1!
14
b1 @
#862
0!
04
#863
1!
14
b0 @
0D
00
#864
0!
04
#865
1!
14
b1 @
#866
0!
04
#867
1!
14
b0 @
1D
10
b110 ?
b110 k
b110 ]
b110 O
#868
0!
04
#869
1!
14
b1 @
#870
0!
04
#871
1!
14
b0 @
0D
00
#872
0!
04
#873
1!
14
b1 @
#874
0!
04
#875
1!
14
b0 @
1D
10
b101 ?
b101 k
b101 ]
b101 O
#876
0!
04
#877
1!
14
b1 @
#878
0!
04
#879
1!
14
b0 @
0D
00
1B
1/
0o
0a
0S
#880
0!
04
#881
1!
14
b1 @
#882
0!
04
#883
1!
14
b0 @
1D
10
b100 ?
b100000 j
b100 k
b100000 \
b100 ]
b100000 N
b100 O
#884
0!
04
#885
1!
14
b1 @
#886
0!
04
#887
1!
14
b0 @
0D
00
#888
0!
04
#889
1!
14
b1 @
#890
0!
04
#891
1!
14
b0 @
1D
10
b11 ?
b110000 j
b11 k
b110000 \
b11 ]
b110000 N
b11 O
#892
0!
04
#893
1!
14
b1 @
#894
0!
04
#895
1!
14
b0 @
0D
00
#896
0!
04
#897
1!
14
b1 @
#898
0!
04
#899
1!
14
b0 @
1D
10
b10 ?
b111000 j
b10 k
b111000 \
b10 ]
b111000 N
b10 O
#900
0!
04
#901
1!
14
b1 @
#902
0!
04
#903
1!
14
b0 @
0D
00
0B
0/
0n
0`
0R
#904
0!
04
#905
1!
14
b1 @
#906
0!
04
#907
1!
14
b0 @
1D
10
b1 ?
b1 k
b1 ]
b1 O
#908
0!
04
#909
1!
14
b1 @
#910
0!
04
#911
1!
14
b0 @
0D
00
1B
1/
#912
0!
04
#913
1!
14
b1 @
#914
0!
04
#915
1!
14
b0 @
1D
10
b0 ?
b111010 j
b0 k
b111010 \
b0 ]
b111010 N
b0 O
#916
0!
04
#917
1!
14
b1 @
#918
0!
04
