Geral Testbenchs/V3.0/waveform.vcd
$date
	Tue Feb 24 16:51:54 2026
$end
$version
	Icarus Verilog
$end
$timescale
	10ps
$end
$scope module i2c_multi_slave_tb $end
$var wire 1 ! scl $end
$var wire 1 " sda $end
$var wire 8 # slave2_data_received [7:0] $end
$var wire 8 $ slave1_data_received [7:0] $end
$var wire 8 % slave0_data_received [7:0] $end
$var wire 1 & ready $end
$var wire 8 ' master_data_out [7:0] $end
$var reg 7 ( address [6:0] $end
$var reg 1 ) clk $end
$var reg 1 * enable $end
$var reg 8 + master_data_in [7:0] $end
$var reg 1 , rst $end
$var reg 1 - rw $end
$var reg 8 . slave0_data_to_send [7:0] $end
$var reg 8 / slave1_data_to_send [7:0] $end
$var reg 8 0 slave2_data_to_send [7:0] $end
$scope module master $end
$var wire 7 1 address [6:0] $end
$var wire 1 ) clk $end
$var wire 8 2 data_in [7:0] $end
$var wire 1 * enable $end
$var wire 1 ! i2c_scl $end
$var wire 1 " i2c_sda $end
$var wire 1 & ready $end
$var wire 1 , rst $end
$var wire 1 - rw $end
$var parameter 32 3 ADDR_WIDTH $end
$var parameter 32 4 CLOCK_DIV $end
$var parameter 32 5 DATA_WIDTH $end
$var reg 8 6 address_reg [7:0] $end
$var reg 3 7 clk_counter [2:0] $end
$var reg 4 8 counter [3:0] $end
$var reg 8 9 data_out [7:0] $end
$var reg 1 : i2c_clk $end
$var reg 1 ; scl_enable $end
$var reg 1 < sda_drive_en $end
$var reg 1 = sda_out $end
$var reg 4 > state [3:0] $end
$var reg 8 ? write_data_reg [7:0] $end
$upscope $end
$scope module slave0 $end
$var wire 8 @ data_to_send [7:0] $end
$var wire 1 , rst $end
$var wire 1 ! scl $end
$var wire 1 " sda $end
$var parameter 32 A ADDR_WIDTH $end
$var parameter 32 B DATA_WIDTH $end
$var parameter 7 C SLAVE_ADDR $end
$var reg 8 D address_reg [7:0] $end
$var reg 4 E counter [3:0] $end
$var reg 8 F data_received [7:0] $end
$var reg 1 G sda_drive_en $end
$var reg 1 H sda_out $end
$var reg 1 I start_event $end
$var reg 3 J state [2:0] $end
$var reg 1 K stop_event $end
$upscope $end
$scope module slave1 $end
$var wire 8 L data_to_send [7:0] $end
$var wire 1 , rst $end
$var wire 1 ! scl $end
$var wire 1 " sda $end
$var parameter 32 M ADDR_WIDTH $end
$var parameter 32 N DATA_WIDTH $end
$var parameter 7 O SLAVE_ADDR $end
$var reg 8 P address_reg [7:0] $end
$var reg 4 Q counter [3:0] $end
$var reg 8 R data_received [7:0] $end
$var reg 1 S sda_drive_en $end
$var reg 1 T sda_out $end
$var reg 1 U start_event $end
$var reg 3 V state [2:0] $end
$var reg 1 W stop_event $end
$upscope $end
$scope module slave2 $end
$var wire 8 X data_to_send [7:0] $end
$var wire 1 , rst $end
$var wire 1 ! scl $end
$var wire 1 " sda $end
$var parameter 32 Y ADDR_WIDTH $end
$var parameter 32 Z DATA_WIDTH $end
$var parameter 7 [ SLAVE_ADDR $end
$var reg 8 \ address_reg [7:0] $end
$var reg 4 ] counter [3:0] $end
$var reg 8 ^ data_received [7:0] $end
$var reg 1 _ sda_drive_en $end
$var reg 1 ` sda_out $end
$var reg 1 a start_event $end
$var reg 3 b state [2:0] $end
$var reg 1 c stop_event $end
$upscope $end
$upscope $end
$enddefinitions $end
$comment Show the parameter values. $end
$dumpall
b11101 [
b1000 Z
b111 Y
b110011 O
b1000 N
b111 M
b101010 C
b1000 B
b111 A
b1000 5
b100 4
b111 3
$end
#0
$dumpvars
1c
b0 b
0a
1`
0_
b0 ^
b0 ]
b0 \
b0 X
1W
b0 V
0U
1T
0S
b0 R
b0 Q
b0 P
b0 L
1K
b0 J
0I
1H
0G
b0 F
b0 E
b0 D
b0 @
bx ?
b0 >
1=
1<
0;
1:
bx 9
bx 8
b0 7
bx 6
b0 2
b0 1
b0 0
b0 /
b0 .
0-
1,
b0 +
0*
0)
b0 (
bx '
0&
b0 %
b0 $
b0 #
1"
1!
$end
#100
1)
#200
0)
#300
1)
#400
0)
#500
1)
#600
0)
#700
1)
#800
0)
#900
1)
#1000
0)
#1100
1)
#1200
0)
#1300
1)
#1400
0)
#1500
1)
#1600
0)
#1700
1)
#1800
0)
#1900
1)
#2000
1&
0)
1*
b10100101 +
b10100101 2
b101010 (
b101010 1
0,
#2100
b1 7
1)
#2200
0)
#2300
0:
b0 7
1)
#2400
0)
#2500
b1 7
1)
#2600
0)
#2700
0&
b0 '
b0 9
b10100101 ?
b1010100 6
b1 >
1:
b0 7
1)
#2800
0)
#2900
b1 7
1)
#3000
0)
0*
#3100
1a
1U
1I
0"
0=
0:
b0 7
1)
#3200
0)
#3300
b1 7
1)
#3400
0)
#3500
b10 >
1:
b0 7
1)
#3600
0)
#3700
b1 7
1)
#3800
0)
#3900
0!
1;
0:
b0 7
1)
#4000
0)
#4100
b1 7
1)
#4200
0)
#4300
b111 E
b1 J
b111 Q
b1 V
b111 ]
b1 b
b11 >
b111 8
1!
1:
b0 7
1)
#4400
0)
#4500
b1 7
1)
#4600
0)
#4700
0!
0:
b0 7
1)
#4800
0)
#4900
b1 7
1)
#5000
0)
#5100
b110 ]
b110 Q
b110 E
b110 8
1!
1:
b0 7
1)
#5200
0)
#5300
b1 7
1)
#5400
0)
#5500
0K
0W
0c
1"
1=
0!
0:
b0 7
1)
#5600
0)
#5700
b1 7
1)
#5800
0)
#5900
b101 E
b1000000 D
b101 Q
b1000000 P
b101 ]
b1000000 \
b101 8
1!
1:
b0 7
1)
#6000
0)
#6100
b1 7
1)
#6200
0)
#6300
0I
0U
0a
0"
0=
0!
0:
b0 7
1)
#6400
0)
#6500
b1 7
1)
#6600
0)
#6700
b100 ]
b100 Q
b100 E
b100 8
1!
1:
b0 7
1)
#6800
0)
#6900
b1 7
1)
#7000
0)
#7100
1"
1=
0!
0:
b0 7
1)
#7200
0)
#7300
b1 7
1)
#7400
0)
#7500
b11 E
b1010000 D
b11 Q
b1010000 P
b11 ]
b1010000 \
b11 8
1!
1:
b0 7
1)
#7600
0)
#7700
b1 7
1)
#7800
0)
#7900
0"
0=
0!
0:
b0 7
1)
#8000
0)
#8100
b1 7
1)
#8200
0)
#8300
b10 ]
b10 Q
b10 E
b10 8
1!
1:
b0 7
1)
#8400
0)
#8500
b1 7
1)
#8600
0)
#8700
1"
1=
0!
0:
b0 7
1)
#8800
0)
#8900
b1 7
1)
#9000
0)
#9100
b1 E
b1010100 D
b1 Q
b1010100 P
b1 ]
b1010100 \
b1 8
1!
1:
b0 7
1)
#9200
0)
#9300
b1 7
1)
#9400
0)
#9500
0"
0=
0!
0:
b0 7
1)
#9600
0)
#9700
b1 7
1)
#9800
0)
#9900
b0 ]
b0 Q
b0 E
b0 8
1!
1:
b0 7
1)
#10000
0)
#10100
b1 7
1)
#10200
0)
#10300
0!
0:
b0 7
1)
#10400
0)
#10500
b1 7
1)
#10600
0)
#10700
b10 J
b10 V
b10 b
b100 >
1!
1:
b0 7
1)
#10800
0)
#10900
b1 7
1)
#11000
0)
#11100
0"
1G
0H
0<
0!
0:
b0 7
1)
#11200
0)
#11300
b1 7
1)
#11400
0)
#11500
b0 b
b0 V
b11 J
b111 E
b101 >
b111 8
1!
1:
b0 7
1)
#11600
0)
#11700
b1 7
1)
#11800
0)
#11900
1"
0G
1=
1<
0!
0:
b0 7
1)
#12000
0)
#12100
b1 7
1)
#12200
0)
#12300
b110 E
b10000000 %
b10000000 F
b110 8
1!
1:
b0 7
1)
#12400
0)
#12500
b1 7
1)
#12600
0)
#12700
0"
0=
0!
0:
b0 7
1)
#12800
0)
#12900
b1 7
1)
#13000
0)
#13100
b101 E
b101 8
1!
1:
b0 7
1)
#13200
0)
#13300
b1 7
1)
#13400
0)
#13500
1"
1=
0!
0:
b0 7
1)
#13600
0)
#13700
b1 7
1)
#13800
0)
#13900
b100 E
b10100000 %
b10100000 F
b100 8
1!
1:
b0 7
1)
#14000
0)
#14100
b1 7
1)
#14200
0)
#14300
0"
0=
0!
0:
b0 7
1)
#14400
0)
#14500
b1 7
1)
#14600
0)
#14700
b11 E
b11 8
1!
1:
b0 7
1)
#14800
0)
#14900
b1 7
1)
#15000
0)
#15100
0!
0:
b0 7
1)
#15200
0)
#15300
b1 7
1)
#15400
0)
#15500
b10 E
b10 8
1!
1:
b0 7
1)
#15600
0)
#15700
b1 7
1)
#15800
0)
#15900
1"
1=
0!
0:
b0 7
1)
#16000
0)
#16100
b1 7
1)
#16200
0)
#16300
b1 E
b10100100 %
b10100100 F
b1 8
1!
1:
b0 7
1)
#16400
0)
#16500
b1 7
1)
#16600
0)
#16700
0"
0=
0!
0:
b0 7
1)
#16800
0)
#16900
b1 7
1)
#17000
0)
#17100
b0 E
b0 8
1!
1:
b0 7
1)
#17200
0)
#17300
b1 7
1)
#17400
0)
#17500
1"
1=
0!
0:
b0 7
1)
#17600
0)
#17700
b1 7
1)
#17800
0)
#17900
b100 J
b10100101 %
b10100101 F
b110 >
1!
1:
b0 7
1)
#18000
0)
#18100
b1 7
1)
#18200
0)
#18300
0"
1G
0<
0!
0:
b0 7
1)
#18400
0)
#18500
b1 7
1)
#18600
0)
#18700
b0 J
b1001 >
1!
1:
b0 7
1)
#18800
0)
#18900
b1 7
1)
#19000
0)
#19100
1K
1W
1c
1"
0G
0;
1<
1!
0:
b0 7
1)
#19200
0)
#19300
b1 7
1)
#19400
0)
#19500
1&
b0 >
1:
b0 7
1)
#19600
0)
#19700
b1 7
1)
#19800
0)
#19900
0:
b0 7
1)
#20000
0)
#20100
b1 7
1)
#20200
0)
#20300
1:
b0 7
1)
#20400
0)
#20500
b1 7
1)
#20600
0)
#20700
0:
b0 7
1)
#20800
0)
#20900
b1 7
1)
#21000
0)
#21100
1:
b0 7
1)
#21200
0)
#21300
b1 7
1)
#21400
0)
#21500
0:
b0 7
1)
#21600
0)
#21700
b1 7
1)
#21800
0)
#21900
1:
b0 7
1)
#22000
0)
#22100
b1 7
1)
#22200
0)
#22300
0:
b0 7
1)
#22400
0)
#22500
b1 7
1)
#22600
0)
#22700
1:
b0 7
1)
#22800
0)
#22900
b1 7
1)
#23000
0)
#23100
0:
b0 7
1)
#23200
0)
#23300
b1 7
1)
#23400
0)
#23500
1:
b0 7
1)
#23600
0)
#23700
b1 7
1)
#23800
0)
#23900
0:
b0 7
1)
#24000
0)
#24100
b1 7
1)
#24200
0)
#24300
1:
b0 7
1)
#24400
0)
#24500
b1 7
1)
#24600
0)
#24700
0:
b0 7
1)
#24800
0)
#24900
b1 7
1)
#25000
0)
#25100
1:
b0 7
1)
#25200
0)
#25300
b1 7
1)
#25400
0)
#25500
0:
b0 7
1)
#25600
0)
#25700
b1 7
1)
#25800
0)
#25900
1:
b0 7
1)
#26000
0)
#26100
b1 7
1)
#26200
0)
#26300
0:
b0 7
1)
#26400
0)
#26500
b1 7
1)
#26600
0)
#26700
1:
b0 7
1)
#26800
0)
#26900
b1 7
1)
#27000
0)
#27100
0:
b0 7
1)
#27200
0)
#27300
b1 7
1)
#27400
0)
#27500
1:
b0 7
1)
#27600
0)
#27700
b1 7
1)
#27800
0)
#27900
0:
b0 7
1)
#28000
0)
#28100
b1 7
1)
#28200
0)
#28300
1:
b0 7
1)
#28400
0)
#28500
b1 7
1)
#28600
0)
#28700
0:
b0 7
1)
#28800
0)
#28900
b1 7
1)
#29000
0)
#29100
1:
b0 7
1)
#29200
0)
#29300
b1 7
1)
#29400
0)
#29500
0:
b0 7
1)
#29600
0)
#29700
b1 7
1)
#29800
0)
#29900
1:
b0 7
1)
#30000
0)
#30100
b1 7
1)
#30200
0)
#30300
0:
b0 7
1)
#30400
0)
#30500
b1 7
1)
#30600
0)
#30700
1:
b0 7
1)
#30800
0)
#30900
b1 7
1)
#31000
0)
#31100
0:
b0 7
1)
#31200
0)
#31300
b1 7
1)
#31400
0)
#31500
1:
b0 7
1)
#31600
0)
#31700
b1 7
1)
#31800
0)
#31900
0:
b0 7
1)
#32000
0)
#32100
b1 7
1)
#32200
0)
#32300
1:
b0 7
1)
#32400
0)
#32500
b1 7
1)
#32600
0)
#32700
0:
b0 7
1)
#32800
0)
#32900
b1 7
1)
#33000
0)
#33100
1:
b0 7
1)
#33200
0)
#33300
b1 7
1)
#33400
0)
#33500
0:
b0 7
1)
#33600
0)
#33700
b1 7
1)
#33800
0)
#33900
1:
b0 7
1)
#34000
0)
#34100
b1 7
1)
#34200
0)
#34300
0:
b0 7
1)
#34400
0)
#34500
b1 7
1)
#34600
0)
#34700
1:
b0 7
1)
#34800
0)
#34900
b1 7
1)
#35000
0)
#35100
0:
b0 7
1)
#35200
0)
#35300
b1 7
1)
#35400
0)
#35500
1:
b0 7
1)
#35600
0)
#35700
b1 7
1)
#35800
0)
#35900
0:
b0 7
1)
#36000
0)
#36100
b1 7
1)
#36200
0)
#36300
1:
b0 7
1)
#36400
0)
#36500
b1 7
1)
#36600
0)
#36700
0:
b0 7
1)
#36800
0)
#36900
b1 7
1)
#37000
0)
#37100
1:
b0 7
1)
#37200
0)
#37300
b1 7
1)
#37400
0)
#37500
0:
b0 7
1)
#37600
0)
#37700
b1 7
1)
#37800
0)
#37900
1:
b0 7
1)
#38000
0)
#38100
b1 7
1)
#38200
0)
#38300
0:
b0 7
1)
#38400
0)
#38500
b1 7
1)
#38600
0)
#38700
1:
b0 7
1)
#38800
0)
#38900
b1 7
1)
#39000
0)
#39100
0:
b0 7
1)
#39200
0)
#39300
b1 7
1)
#39400
0)
#39500
1:
b0 7
1)
#39600
0)
#39700
b1 7
1)
#39800
0)
#39900
0:
b0 7
1)
#40000
0)
#40100
b1 7
1)
#40200
0)
#40300
1:
b0 7
1)
#40400
0)
#40500
b1 7
1)
#40600
0)
#40700
0:
b0 7
1)
#40800
0)
#40900
b1 7
1)
#41000
0)
#41100
1:
b0 7
1)
#41200
0)
#41300
b1 7
1)
#41400
0)
#41500
0:
b0 7
1)
#41600
0)
#41700
b1 7
1)
#41800
0)
#41900
1:
b0 7
1)
#42000
0)
#42100
b1 7
1)
#42200
0)
#42300
0:
b0 7
1)
#42400
0)
#42500
b1 7
1)
#42600
0)
#42700
1:
b0 7
1)
#42800
0)
#42900
b1 7
1)
#43000
0)
1*
b111100 +
b111100 2
b110011 (
b110011 1
#43100
0:
b0 7
1)
#43200
0)
#43300
b1 7
1)
#43400
0)
#43500
0&
b111100 ?
b1100110 6
b1 >
1:
b0 7
1)
#43600
0)
#43700
b1 7
1)
#43800
0)
#43900
1I
1U
1a
0"
0=
0:
b0 7
1)
#44000
0)
0*
#44100
b1 7
1)
#44200
0)
#44300
b10 >
1:
b0 7
1)
#44400
0)
#44500
b1 7
1)
#44600
0)
#44700
0!
1;
0:
b0 7
1)
#44800
0)
#44900
b1 7
1)
#45000
0)
#45100
b0 D
b111 E
b1 J
b0 P
b111 Q
b1 V
b0 \
b111 ]
b1 b
b11 >
b111 8
1!
1:
b0 7
1)
#45200
0)
#45300
b1 7
1)
#45400
0)
#45500
0!
0:
b0 7
1)
#45600
0)
#45700
b1 7
1)
#45800
0)
#45900
b110 ]
b110 Q
b110 E
b110 8
1!
1:
b0 7
1)
#46000
0)
#46100
b1 7
1)
#46200
0)
#46300
0c
0W
0K
1"
1=
0!
0:
b0 7
1)
#46400
0)
#46500
b1 7
1)
#46600
0)
#46700
b101 E
b1000000 D
b101 Q
b1000000 P
b101 ]
b1000000 \
b101 8
1!
1:
b0 7
1)
#46800
0)
#46900
b1 7
1)
#47000
0)
#47100
0!
0:
b0 7
1)
#47200
0)
#47300
b1 7
1)
#47400
0)
#47500
b100 ]
b1100000 \
b100 Q
b1100000 P
b100 E
b1100000 D
b100 8
1!
1:
b0 7
1)
#47600
0)
#47700
b1 7
1)
#47800
0)
#47900
0a
0U
0I
0"
0=
0!
0:
b0 7
1)
#48000
0)
#48100
b1 7
1)
#48200
0)
#48300
b11 E
b11 Q
b11 ]
b11 8
1!
1:
b0 7
1)
#48400
0)
#48500
b1 7
1)
#48600
0)
#48700
0!
0:
b0 7
1)
#48800
0)
#48900
b1 7
1)
#49000
0)
#49100
b10 ]
b10 Q
b10 E
b10 8
1!
1:
b0 7
1)
#49200
0)
#49300
b1 7
1)
#49400
0)
#49500
1"
1=
0!
0:
b0 7
1)
#49600
0)
#49700
b1 7
1)
#49800
0)
#49900
b1 E
b1100100 D
b1 Q
b1100100 P
b1 ]
b1100100 \
b1 8
1!
1:
b0 7
1)
#50000
0)
#50100
b1 7
1)
#50200
0)
#50300
0!
0:
b0 7
1)
#50400
0)
#50500
b1 7
1)
#50600
0)
#50700
b0 ]
b1100110 \
b0 Q
b1100110 P
b0 E
b1100110 D
b0 8
1!
1:
b0 7
1)
#50800
0)
#50900
b1 7
1)
#51000
0)
#51100
0"
0=
0!
0:
b0 7
1)
#51200
0)
#51300
b1 7
1)
#51400
0)
#51500
b10 J
b10 V
b10 b
b100 >
1!
1:
b0 7
1)
#51600
0)
#51700
b1 7
1)
#51800
0)
#51900
0"
1S
0T
0<
0!
0:
b0 7
1)
#52000
0)
#52100
b1 7
1)
#52200
0)
#52300
b0 b
b11 V
b111 Q
b0 J
b101 >
b111 8
1!
1:
b0 7
1)
#52400
0)
#52500
b1 7
1)
#52600
0)
#52700
0S
1<
0!
0:
b0 7
1)
#52800
0)
#52900
b1 7
1)
#53000
0)
#53100
b110 Q
b110 8
1!
1:
b0 7
1)
#53200
0)
#53300
b1 7
1)
#53400
0)
#53500
0!
0:
b0 7
1)
#53600
0)
#53700
b1 7
1)
#53800
0)
#53900
b101 Q
b101 8
1!
1:
b0 7
1)
#54000
0)
#54100
b1 7
1)
#54200
0)
#54300
1"
1=
0!
0:
b0 7
1)
#54400
0)
#54500
b1 7
1)
#54600
0)
#54700
b100 Q
b100000 $
b100000 R
b100 8
1!
1:
b0 7
1)
#54800
0)
#54900
b1 7
1)
#55000
0)
#55100
0!
0:
b0 7
1)
#55200
0)
#55300
b1 7
1)
#55400
0)
#55500
b11 Q
b110000 $
b110000 R
b11 8
1!
1:
b0 7
1)
#55600
0)
#55700
b1 7
1)
#55800
0)
#55900
0!
0:
b0 7
1)
#56000
0)
#56100
b1 7
1)
#56200
0)
#56300
b10 Q
b111000 $
b111000 R
b10 8
1!
1:
b0 7
1)
#56400
0)
#56500
b1 7
1)
#56600
0)
#56700
0!
0:
b0 7
1)
#56800
0)
#56900
b1 7
1)
#57000
0)
#57100
b1 Q
b111100 $
b111100 R
b1 8
1!
1:
b0 7
1)
#57200
0)
#57300
b1 7
1)
#57400
0)
#57500
0"
0=
0!
0:
b0 7
1)
#57600
0)
#57700
b1 7
1)
#57800
0)
#57900
b0 Q
b0 8
1!
1:
b0 7
1)
#58000
0)
#58100
b1 7
1)
#58200
0)
#58300
0!
0:
b0 7
1)
#58400
0)
#58500
b1 7
1)
#58600
0)
#58700
b100 V
b110 >
1!
1:
b0 7
1)
#58800
0)
#58900
b1 7
1)
#59000
0)
#59100
0"
1S
0<
0!
0:
b0 7
1)
#59200
0)
#59300
b1 7
1)
#59400
0)
#59500
b0 V
b1001 >
1!
1:
b0 7
1)
#59600
0)
#59700
b1 7
1)
#59800
0)
#59900
1K
1W
1c
1"
0S
1=
1<
0;
1!
0:
b0 7
1)
#60000
0)
#60100
b1 7
1)
#60200
0)
#60300
1&
b0 >
1:
b0 7
1)
#60400
0)
#60500
b1 7
1)
#60600
0)
#60700
0:
b0 7
1)
#60800
0)
#60900
b1 7
1)
#61000
0)
#61100
1:
b0 7
1)
#61200
0)
#61300
b1 7
1)
#61400
0)
#61500
0:
b0 7
1)
#61600
0)
#61700
b1 7
1)
#61800
0)
#61900
1:
b0 7
1)
#62000
0)
#62100
b1 7
1)
#62200
0)
#62300
0:
b0 7
1)
#62400
0)
#62500
b1 7
1)
#62600
0)
#62700
1:
b0 7
1)
#62800
0)
#62900
b1 7
1)
#63000
0)
#63100
0:
b0 7
1)
#63200
0)
#63300
b1 7
1)
#63400
0)
#63500
1:
b0 7
1)
#63600
0)
#63700
b1 7
1)
#63800
0)
#63900
0:
b0 7
1)
#64000
0)
#64100
b1 7
1)
#64200
0)
#64300
1:
b0 7
1)
#64400
0)
#64500
b1 7
1)
#64600
0)
#64700
0:
b0 7
1)
#64800
0)
#64900
b1 7
1)
#65000
0)
#65100
1:
b0 7
1)
#65200
0)
#65300
b1 7
1)
#65400
0)
#65500
0:
b0 7
1)
#65600
0)
#65700
b1 7
1)
#65800
0)
#65900
1:
b0 7
1)
#66000
0)
#66100
b1 7
1)
#66200
0)
#66300
0:
b0 7
1)
#66400
0)
#66500
b1 7
1)
#66600
0)
#66700
1:
b0 7
1)
#66800
0)
#66900
b1 7
1)
#67000
0)
#67100
0:
b0 7
1)
#67200
0)
#67300
b1 7
1)
#67400
0)
#67500
1:
b0 7
1)
#67600
0)
#67700
b1 7
1)
#67800
0)
#67900
0:
b0 7
1)
#68000
0)
#68100
b1 7
1)
#68200
0)
#68300
1:
b0 7
1)
#68400
0)
#68500
b1 7
1)
#68600
0)
#68700
0:
b0 7
1)
#68800
0)
#68900
b1 7
1)
#69000
0)
#69100
1:
b0 7
1)
#69200
0)
#69300
b1 7
1)
#69400
0)
#69500
0:
b0 7
1)
#69600
0)
#69700
b1 7
1)
#69800
0)
#69900
1:
b0 7
1)
#70000
0)
#70100
b1 7
1)
#70200
0)
#70300
0:
b0 7
1)
#70400
0)
#70500
b1 7
1)
#70600
0)
#70700
1:
b0 7
1)
#70800
0)
#70900
b1 7
1)
#71000
0)
#71100
0:
b0 7
1)
#71200
0)
#71300
b1 7
1)
#71400
0)
#71500
1:
b0 7
1)
#71600
0)
#71700
b1 7
1)
#71800
0)
#71900
0:
b0 7
1)
#72000
0)
#72100
b1 7
1)
#72200
0)
#72300
1:
b0 7
1)
#72400
0)
#72500
b1 7
1)
#72600
0)
#72700
0:
b0 7
1)
#72800
0)
#72900
b1 7
1)
#73000
0)
#73100
1:
b0 7
1)
#73200
0)
#73300
b1 7
1)
#73400
0)
#73500
0:
b0 7
1)
#73600
0)
#73700
b1 7
1)
#73800
0)
#73900
1:
b0 7
1)
#74000
0)
#74100
b1 7
1)
#74200
0)
#74300
0:
b0 7
1)
#74400
0)
#74500
b1 7
1)
#74600
0)
#74700
1:
b0 7
1)
#74800
0)
#74900
b1 7
1)
#75000
0)
#75100
0:
b0 7
1)
#75200
0)
#75300
b1 7
1)
#75400
0)
#75500
1:
b0 7
1)
#75600
0)
#75700
b1 7
1)
#75800
0)
#75900
0:
b0 7
1)
#76000
0)
#76100
b1 7
1)
#76200
0)
#76300
1:
b0 7
1)
#76400
0)
#76500
b1 7
1)
#76600
0)
#76700
0:
b0 7
1)
#76800
0)
#76900
b1 7
1)
#77000
0)
#77100
1:
b0 7
1)
#77200
0)
#77300
b1 7
1)
#77400
0)
#77500
0:
b0 7
1)
#77600
0)
#77700
b1 7
1)
#77800
0)
#77900
1:
b0 7
1)
#78000
0)
#78100
b1 7
1)
#78200
0)
#78300
0:
b0 7
1)
#78400
0)
#78500
b1 7
1)
#78600
0)
#78700
1:
b0 7
1)
#78800
0)
#78900
b1 7
1)
#79000
0)
#79100
0:
b0 7
1)
#79200
0)
#79300
b1 7
1)
#79400
0)
#79500
1:
b0 7
1)
#79600
0)
#79700
b1 7
1)
#79800
0)
#79900
0:
b0 7
1)
#80000
0)
#80100
b1 7
1)
#80200
0)
#80300
1:
b0 7
1)
#80400
0)
#80500
b1 7
1)
#80600
0)
#80700
0:
b0 7
1)
#80800
0)
#80900
b1 7
1)
#81000
0)
#81100
1:
b0 7
1)
#81200
0)
#81300
b1 7
1)
#81400
0)
#81500
0:
b0 7
1)
#81600
0)
#81700
b1 7
1)
#81800
0)
#81900
1:
b0 7
1)
#82000
0)
#82100
b1 7
1)
#82200
0)
#82300
0:
b0 7
1)
#82400
0)
#82500
b1 7
1)
#82600
0)
#82700
1:
b0 7
1)
#82800
0)
#82900
b1 7
1)
#83000
0)
#83100
0:
b0 7
1)
#83200
0)
#83300
b1 7
1)
#83400
0)
#83500
1:
b0 7
1)
#83600
0)
#83700
b1 7
1)
#83800
0)
#83900
0:
b0 7
1)
#84000
0)
1*
b1110111 +
b1110111 2
b11101 (
b11101 1
#84100
b1 7
1)
#84200
0)
#84300
0&
b1110111 ?
b111010 6
b1 >
1:
b0 7
1)
#84400
0)
#84500
b1 7
1)
#84600
0)
#84700
1I
1U
1a
0"
0=
0:
b0 7
1)
#84800
0)
#84900
b1 7
1)
#85000
0)
0*
#85100
b10 >
1:
b0 7
1)
#85200
0)
#85300
b1 7
1)
#85400
0)
#85500
0!
1;
0:
b0 7
1)
#85600
0)
#85700
b1 7
1)
#85800
0)
#85900
b0 D
b111 E
b1 J
b0 P
b111 Q
b1 V
b0 \
b111 ]
b1 b
b11 >
b111 8
1!
1:
b0 7
1)
#86000
0)
#86100
b1 7
1)
#86200
0)
#86300
0!
0:
b0 7
1)
#86400
0)
#86500
b1 7
1)
#86600
0)
#86700
b110 ]
b110 Q
b110 E
b110 8
1!
1:
b0 7
1)
#86800
0)
#86900
b1 7
1)
#87000
0)
#87100
0!
0:
b0 7
1)
#87200
0)
#87300
b1 7
1)
#87400
0)
#87500
b101 E
b101 Q
b101 ]
b101 8
1!
1:
b0 7
1)
#87600
0)
#87700
b1 7
1)
#87800
0)
#87900
0c
0W
0K
1"
1=
0!
0:
b0 7
1)
#88000
0)
#88100
b1 7
1)
#88200
0)
#88300
b100 ]
b100000 \
b100 Q
b100000 P
b100 E
b100000 D
b100 8
1!
1:
b0 7
1)
#88400
0)
#88500
b1 7
1)
#88600
0)
#88700
0!
0:
b0 7
1)
#88800
0)
#88900
b1 7
1)
#89000
0)
#89100
b11 E
b110000 D
b11 Q
b110000 P
b11 ]
b110000 \
b11 8
1!
1:
b0 7
1)
#89200
0)
#89300
b1 7
1)
#89400
0)
#89500
0!
0:
b0 7
1)
#89600
0)
#89700
b1 7
1)
#89800
0)
#89900
b10 ]
b111000 \
b10 Q
b111000 P
b10 E
b111000 D
b10 8
1!
1:
b0 7
1)
#90000
0)
#90100
b1 7
1)
#90200
0)
#90300
0a
0U
0I
0"
0=
0!
0:
b0 7
1)
#90400
0)
#90500
b1 7
1)
#90600
0)
#90700
b1 E
b1 Q
b1 ]
b1 8
1!
1:
b0 7
1)
#90800
0)
#90900
b1 7
1)
#91000
0)
#91100
1"
1=
0!
0:
b0 7
1)
#91200
0)
#91300
b1 7
1)
#91400
0)
#91500
b0 ]
b111010 \
b0 Q
b111010 P
b0 E
b111010 D
b0 8
1!
1:
b0 7
1)
#91600
0)
#91700
b1 7
1)
#91800
0)
#91900
0"
0=
0!
0:
b0 7
1)
#92000
0)
#92100
b1 7
1)
#92200
0)
#92300
b10 J
b10 V
b10 b
b100 >
1!
1:
b0 7
1)
#92400
0)
#92500
b1 7
1)
#92600
0)
#92700
0"
1_
0`
0<
0!
0:
b0 7
1)
#92800
0)
#92900
b1 7
1)
#93000
0)
#93100
b11 b
b111 ]
b0 V
b0 J
b101 >
b111 8
1!
1:
b0 7
1)
#93200
0)
#93300
b1 7
1)
#93400
0)
#93500
0_
1<
0!
0:
b0 7
1)
#93600
0)
#93700
b1 7
1)
#93800
0)
#93900
b110 ]
b110 8
1!
1:
b0 7
1)
#94000
0)
#94100
b1 7
1)
#94200
0)
#94300
1"
1=
0!
0:
b0 7
1)
#94400
0)
#94500
b1 7
1)
#94600
0)
#94700
b101 ]
b1000000 #
b1000000 ^
b101 8
1!
1:
b0 7
1)
#94800
0)
#94900
b1 7
1)
#95000
0)
#95100
0!
0:
b0 7
1)
#95200
0)
#95300
b1 7
1)
#95400
0)
#95500
b100 ]
b1100000 #
b1100000 ^
b100 8
1!
1:
b0 7
1)
#95600
0)
#95700
b1 7
1)
#95800
0)
#95900
0!
0:
b0 7
1)
#96000
0)
#96100
b1 7
1)
#96200
0)
#96300
b11 ]
b1110000 #
b1110000 ^
b11 8
1!
1:
b0 7
1)
#96400
0)
#96500
b1 7
1)
#96600
0)
#96700
0"
0=
0!
0:
b0 7
1)
#96800
0)
#96900
b1 7
1)
#97000
0)
#97100
b10 ]
b10 8
1!
1:
b0 7
1)
#97200
0)
#97300
b1 7
1)
#97400
0)
#97500
1"
1=
0!
0:
b0 7
1)
#97600
0)
#97700
b1 7
1)
#97800
0)
#97900
b1 ]
b1110100 #
b1110100 ^
b1 8
1!
1:
b0 7
1)
#98000
0)
#98100
b1 7
1)
#98200
0)
#98300
0!
0:
b0 7
1)
#98400
0)
#98500
b1 7
1)
#98600
0)
#98700
b0 ]
b1110110 #
b1110110 ^
b0 8
1!
1:
b0 7
1)
#98800
0)
#98900
b1 7
1)
#99000
0)
#99100
0!
0:
b0 7
1)
#99200
0)
#99300
b1 7
1)
#99400
0)
#99500
b100 b
b1110111 #
b1110111 ^
b110 >
1!
1:
b0 7
1)
#99600
0)
#99700
b1 7
1)
#99800
0)
#99900
0"
1_
0<
0!
0:
b0 7
1)
#100000
0)
#100100
b1 7
1)
#100200
0)
#100300
b0 b
b1001 >
1!
1:
b0 7
1)
#100400
0)
#100500
b1 7
1)
#100600
0)
#100700
1K
1W
1c
1"
0_
0;
1<
1!
0:
b0 7
1)
#100800
0)
#100900
b1 7
1)
#101000
0)
#101100
1&
b0 >
1:
b0 7
1)
#101200
0)
#101300
b1 7
1)
#101400
0)
#101500
0:
b0 7
1)
#101600
0)
#101700
b1 7
1)
#101800
0)
#101900
1:
b0 7
1)
#102000
0)
#102100
b1 7
1)
#102200
0)
#102300
0:
b0 7
1)
#102400
0)
#102500
b1 7
1)
#102600
0)
#102700
1:
b0 7
1)
#102800
0)
#102900
b1 7
1)
#103000
0)
#103100
0:
b0 7
1)
#103200
0)
#103300
b1 7
1)
#103400
0)
#103500
1:
b0 7
1)
