Geral Testbenchs/V1.0/waveform.vcd
$date
	Thu Feb 12 19:35:24 2026
$end
$version
	Icarus Verilog
$end
$timescale
	10ps
$end
$scope module i2c_controller_tb $end
$var wire 1 ! sda $end
$var wire 8 " slave_data_received [7:0] $end
$var wire 1 # scl $end
$var wire 1 $ ready $end
$var wire 8 % master_data_out [7:0] $end
$var reg 7 & address [6:0] $end
$var reg 1 ' clk $end
$var reg 1 ( enable $end
$var reg 8 ) master_data_in [7:0] $end
$var reg 1 * rst $end
$var reg 1 + rw $end
$var reg 8 , slave_data_to_send [7:0] $end
$scope module master $end
$var wire 7 - address [6:0] $end
$var wire 1 ' clk $end
$var wire 8 . data_in [7:0] $end
$var wire 1 ( enable $end
$var wire 1 ! i2c_sda $end
$var wire 1 $ ready $end
$var wire 1 * rst $end
$var wire 1 + rw $end
$var wire 1 # i2c_scl $end
$var parameter 32 / ADDR_WIDTH $end
$var parameter 32 0 CLOCK_DIV $end
$var parameter 32 1 DATA_WIDTH $end
$var reg 8 2 address_reg [7:0] $end
$var reg 3 3 clk_counter [2:0] $end
$var reg 4 4 counter [3:0] $end
$var reg 8 5 data_out [7:0] $end
$var reg 1 6 i2c_clk $end
$var reg 1 7 scl_enable $end
$var reg 1 8 sda_drive_en $end
$var reg 1 9 sda_out $end
$var reg 4 : state [3:0] $end
$var reg 8 ; write_data_reg [7:0] $end
$upscope $end
$scope module slave $end
$var wire 8 < data_to_send [7:0] $end
$var wire 1 * rst $end
$var wire 1 # scl $end
$var wire 1 ! sda $end
$var parameter 32 = ADDR_WIDTH $end
$var parameter 32 > DATA_WIDTH $end
$var parameter 7 ? SLAVE_ADDR $end
$var reg 8 @ address_reg [7:0] $end
$var reg 4 A counter [3:0] $end
$var reg 8 B data_received [7:0] $end
$var reg 1 C sda_drive_en $end
$var reg 1 D sda_out $end
$var reg 1 E start_detected $end
$var reg 3 F state [2:0] $end
$upscope $end
$upscope $end
$enddefinitions $end
$comment Show the parameter values. $end
$dumpall
b101010 ?
b1000 >
b111 =
b1000 1
b100 0
b111 /
$end
#0
$dumpvars
b0 F
0E
0D
0C
bx B
b111 A
bx @
b0 <
bx ;
b0 :
19
18
07
16
bx 5
bx 4
b0 3
bx 2
b0 .
b0 -
b0 ,
0+
1*
b0 )
0(
0'
b0 &
bx %
0$
1#
bx "
1!
$end
#100
1'
#200
0'
#300
1'
#400
0'
#500
1'
#600
0'
#700
1'
#800
0'
#900
1'
#1000
1$
0'
1(
b10101010 )
b10101010 .
b101010 &
b101010 -
0*
#1100
b1 3
1'
#1200
0'
#1300
06
b0 3
1'
#1400
0'
#1500
b1 3
1'
#1600
0'
#1700
0$
b0 %
b0 5
b10101010 ;
b1010100 2
b1 :
16
b0 3
1'
#1800
0'
#1900
b1 3
1'
#2000
0'
0(
#2100
1E
b0 "
b0 B
0!
09
06
b0 3
1'
#2200
0'
#2300
b1 3
1'
#2400
0'
#2500
b10 :
b111 4
16
b0 3
1'
#2600
0'
#2700
b1 3
1'
#2800
0'
#2900
0#
17
06
b0 3
1'
#3000
0'
#3100
b1 3
1'
#3200
0'
#3300
b110 A
b0xxxxxxx @
b110 4
1#
16
b0 3
1'
#3400
0'
#3500
b1 3
1'
#3600
0'
#3700
1!
19
0#
06
b0 3
1'
#3800
0'
#3900
b1 3
1'
#4000
0'
#4100
b101 A
b1xxxxxx @
b101 4
1#
16
b0 3
1'
#4200
0'
#4300
b1 3
1'
#4400
0'
#4500
0!
09
0#
06
b0 3
1'
#4600
0'
#4700
b1 3
1'
#4800
0'
#4900
b100 A
b10xxxxx @
b100 4
1#
16
b0 3
1'
#5000
0'
#5100
b1 3
1'
#5200
0'
#5300
1!
19
0#
06
b0 3
1'
#5400
0'
#5500
b1 3
1'
#5600
0'
#5700
b11 A
b101xxxx @
b11 4
1#
16
b0 3
1'
#5800
0'
#5900
b1 3
1'
#6000
0'
#6100
0!
09
0#
06
b0 3
1'
#6200
0'
#6300
b1 3
1'
#6400
0'
#6500
b10 A
b1010xxx @
b10 4
1#
16
b0 3
1'
#6600
0'
#6700
b1 3
1'
#6800
0'
#6900
1!
19
0#
06
b0 3
1'
#7000
0'
#7100
b1 3
1'
#7200
0'
#7300
b1 A
b10101xx @
b1 4
1#
16
b0 3
1'
#7400
0'
#7500
b1 3
1'
#7600
0'
#7700
0!
09
0#
06
b0 3
1'
#7800
0'
#7900
b1 3
1'
#8000
0'
#8100
b0 A
b101010x @
b0 4
1#
16
b0 3
1'
#8200
0'
#8300
b1 3
1'
#8400
0'
#8500
0#
06
b0 3
1'
#8600
0'
#8700
b1 3
1'
#8800
0'
#8900
b1 F
b1010100 @
b11 :
1#
16
b0 3
1'
#9000
0'
#9100
b1 3
1'
#9200
0'
#9300
0!
1C
08
0#
06
b0 3
1'
#9400
0'
#9500
b1 3
1'
#9600
0'
#9700
b10 F
b111 A
b100 :
b111 4
1#
16
b0 3
1'
#9800
0'
#9900
b1 3
1'
#10000
0'
#10100
1!
0C
19
18
0#
06
b0 3
1'
#10200
0'
#10300
b1 3
1'
#10400
0'
#10500
b110 A
b10000000 "
b10000000 B
b110 4
1#
16
b0 3
1'
#10600
0'
#10700
b1 3
1'
#10800
0'
#10900
0!
09
0#
06
b0 3
1'
#11000
0'
#11100
b1 3
1'
#11200
0'
#11300
b101 A
b101 4
1#
16
b0 3
1'
#11400
0'
#11500
b1 3
1'
#11600
0'
#11700
1!
19
0#
06
b0 3
1'
#11800
0'
#11900
b1 3
1'
#12000
0'
#12100
b100 A
b10100000 "
b10100000 B
b100 4
1#
16
b0 3
1'
#12200
0'
#12300
b1 3
1'
#12400
0'
#12500
0!
09
0#
06
b0 3
1'
#12600
0'
#12700
b1 3
1'
#12800
0'
#12900
b11 A
b11 4
1#
16
b0 3
1'
#13000
0'
#13100
b1 3
1'
#13200
0'
#13300
1!
19
0#
06
b0 3
1'
#13400
0'
#13500
b1 3
1'
#13600
0'
#13700
b10 A
b10101000 "
b10101000 B
b10 4
1#
16
b0 3
1'
#13800
0'
#13900
b1 3
1'
#14000
0'
#14100
0!
09
0#
06
b0 3
1'
#14200
0'
#14300
b1 3
1'
#14400
0'
#14500
b1 A
b1 4
1#
16
b0 3
1'
#14600
0'
#14700
b1 3
1'
#14800
0'
#14900
1!
19
0#
06
b0 3
1'
#15000
0'
#15100
b1 3
1'
#15200
0'
#15300
b0 A
b10101010 "
b10101010 B
b0 4
1#
16
b0 3
1'
#15400
0'
#15500
b1 3
1'
#15600
0'
#15700
0!
09
0#
06
b0 3
1'
#15800
0'
#15900
b1 3
1'
#16000
0'
#16100
b100 F
b101 :
1#
16
b0 3
1'
#16200
0'
#16300
b1 3
1'
#16400
0'
#16500
1C
0#
06
b0 3
1'
#16600
0'
#16700
b1 3
1'
#16800
0'
#16900
b0 F
b1000 :
1#
16
b0 3
1'
#17000
0'
#17100
b1 3
1'
#17200
0'
#17300
0E
b0 F
b1010101 @
1!
0C
19
07
1#
06
b0 3
1'
#17400
0'
#17500
b1 3
1'
#17600
0'
#17700
1$
b0 :
16
b0 3
1'
#17800
0'
#17900
b1 3
1'
#18000
0'
#18100
06
b0 3
1'
#18200
0'
#18300
b1 3
1'
#18400
0'
#18500
16
b0 3
1'
#18600
0'
#18700
b1 3
1'
#18800
0'
#18900
06
b0 3
1'
#19000
0'
#19100
b1 3
1'
#19200
0'
#19300
16
b0 3
1'
#19400
0'
#19500
b1 3
1'
#19600
0'
#19700
06
b0 3
1'
#19800
0'
#19900
b1 3
1'
#20000
0'
#20100
16
b0 3
1'
#20200
0'
#20300
b1 3
1'
#20400
0'
#20500
06
b0 3
1'
#20600
0'
#20700
b1 3
1'
#20800
0'
#20900
16
b0 3
1'
#21000
0'
#21100
b1 3
1'
#21200
0'
#21300
06
b0 3
1'
#21400
0'
#21500
b1 3
1'
#21600
0'
#21700
16
b0 3
1'
#21800
0'
#21900
b1 3
1'
#22000
0'
#22100
06
b0 3
1'
#22200
0'
#22300
b1 3
1'
#22400
0'
#22500
16
b0 3
1'
#22600
0'
#22700
b1 3
1'
#22800
0'
#22900
06
b0 3
1'
#23000
0'
#23100
b1 3
1'
#23200
0'
#23300
16
b0 3
1'
#23400
0'
#23500
b1 3
1'
#23600
0'
#23700
06
b0 3
1'
#23800
0'
#23900
b1 3
1'
#24000
0'
#24100
16
b0 3
1'
#24200
0'
#24300
b1 3
1'
#24400
0'
#24500
06
b0 3
1'
#24600
0'
#24700
b1 3
1'
#24800
0'
#24900
16
b0 3
1'
#25000
0'
#25100
b1 3
1'
#25200
0'
#25300
06
b0 3
1'
#25400
0'
#25500
b1 3
1'
#25600
0'
#25700
16
b0 3
1'
#25800
0'
#25900
b1 3
1'
#26000
0'
#26100
06
b0 3
1'
#26200
0'
#26300
b1 3
1'
#26400
0'
#26500
16
b0 3
1'
#26600
0'
#26700
b1 3
1'
#26800
0'
#26900
06
b0 3
1'
#27000
0'
#27100
b1 3
1'
#27200
0'
#27300
16
b0 3
1'
#27400
0'
#27500
b1 3
1'
#27600
0'
#27700
06
b0 3
1'
#27800
0'
#27900
b1 3
1'
#28000
0'
#28100
16
b0 3
1'
#28200
0'
#28300
b1 3
1'
#28400
0'
#28500
06
b0 3
1'
#28600
0'
#28700
b1 3
1'
#28800
0'
#28900
16
b0 3
1'
#29000
0'
#29100
b1 3
1'
#29200
0'
#29300
06
b0 3
1'
#29400
0'
#29500
b1 3
1'
#29600
0'
#29700
16
b0 3
1'
#29800
0'
#29900
b1 3
1'
#30000
0'
#30100
06
b0 3
1'
#30200
0'
#30300
b1 3
1'
#30400
0'
#30500
16
b0 3
1'
#30600
0'
#30700
b1 3
1'
#30800
0'
#30900
06
b0 3
1'
#31000
0'
#31100
b1 3
1'
#31200
0'
#31300
16
b0 3
1'
#31400
0'
#31500
b1 3
1'
#31600
0'
#31700
06
b0 3
1'
#31800
0'
#31900
b1 3
1'
#32000
16
b0 3
b111 A
0$
0'
1*
